{
  "equiposDeTrabajo": [
    {
      "nombreDelProyecto": "PROYECTO UNO",
      "integrantes": [
        1,
        3,
        6,
        7,
        11,
        14
      ]
    },
    {
      "nombreDelProyecto": "PROYECTO DOS",
      "integrantes": [
        2,
        4,
        5,
        6,
        9,
        12
      ]
    }
  ],
  "condicionesParaEquipos": [
    {
      "nombreDelProyecto": "PROYECTO TRES",
      "ideaDelProyecto": "A DESARROLAR",
      "minLideres": 1,
      "maxLideres": 1,
      "minArquitectos": 2,
      "maxArquitectos": 3,
      "minProgramadores": 6,
      "maxProgramadores": 8,
      "minTesters": 3,
      "maxTesters": 4
    }
  ],
  "personas": [
    {
      "id": 1,
      "nombre": "Pablo",
      "rol": "Lider"
    },
    {
      "id": 2,
      "nombre": "Martin",
      "rol": "Lider"
    },
    {
      "id": 3,
      "nombre": "Juan",
      "rol": "Arquitecto"
    },
    {
      "id": 4,
      "nombre": "Fede",
      "rol": "Arquitecto"
    },
    {
      "id": 5,
      "nombre": "Cris",
      "rol": "Arquitecto"
    },
    {
      "id": 6,
      "nombre": "Matias",
      "rol": "Programador"
    },
    {
      "id": 7,
      "nombre": "Willfredo",
      "rol": "Programador"
    },
    {
      "id": 8,
      "nombre": "Fernando",
      "rol": "Programador"
    },
    {
      "id": 9,
      "nombre": "Sara",
      "rol": "Programador"
    },
    {
      "id": 10,
      "nombre": "Laura",
      "rol": "Programador"
    },
    {
      "id": 11,
      "nombre": "Nancy",
      "rol": "Tester"
    },
    {
      "id": 12,
      "nombre": "Ramn",
      "rol": "Tester"
    },
    {
      "id": 13,
      "nombre": "Susana",
      "rol": "Tester"
    },
    {
      "id": 14,
      "nombre": "Carlos",
      "rol": "Tester"
    }
  ],
  "listaIncompatibles": [
    {
      "idPersona_1": 8,
      "idPersona_2": 9
    }
  ]
}